{
  "info": {
    "page": 1,
    "results": 1,
    "seed": "a783170bc5f26659",
    "version": "1.1"
  },
  "results": [
    {
      "cell": "(989)-545-7626",
      "dob": "1993-09-21 05:38:26",
      "email": "eli.roberts@example.com",
      "gender": "male",
      "id": {
        "name": "",
        "value": null
      },
      "location": {
        "city": "masterton",
        "postcode": 19438,
        "state": "bay of plenty",
        "street": "4860 anzac drive"
      },
      "login": {
        "md5": "8d2326e029b78462fed9bc05b2fa9442",
        "password": "aramis",
        "salt": "nhd8V3Bx",
        "sha1": "9a04dd43e48b697bcbced93f8885b924398f2103",
        "sha256": "64d91af71b1a5b7d1dd59378b0c004f70ec2d4a29c755c963c3e56315ead73d5",
        "username": "ticklishelephant511"
      },
      "name": {
        "first": "eli",
        "last": "roberts",
        "title": "mr"
      },
      "phone": "(941)-010-1558",
      "picture": {
        "large": "https://randomuser.me/api/portraits/men/65.jpg",
        "medium": "https://randomuser.me/api/portraits/med/men/65.jpg",
        "thumbnail": "https://randomuser.me/api/portraits/thumb/men/65.jpg"
      },
      "registered": "2012-11-10 04:59:05"
    }
  ]
}